C:\PROJECTS\imagingbook\jtexxchart\jlatexmath\src\main\java\org\scilab\forge\jlatexmath\GeoGebraLogoBox.java
C:\PROJECTS\imagingbook\jtexxchart\jlatexmath\src\main\java\org\scilab\forge\jlatexmath\RuleAtom.java
C:\PROJECTS\imagingbook\jtexxchart\jlatexmath\src\main\java\org\scilab\forge\jlatexmath\Atom.java
C:\PROJECTS\imagingbook\jtexxchart\jlatexmath\src\main\java\org\scilab\forge\jlatexmath\ColorAtom.java
C:\PROJECTS\imagingbook\jtexxchart\jlatexmath\src\main\java\org\scilab\forge\jlatexmath\GraphicsAtom.java
C:\PROJECTS\imagingbook\jtexxchart\jlatexmath\src\main\java\org\scilab\forge\jlatexmath\ScriptsAtom.java
C:\PROJECTS\imagingbook\jtexxchart\jlatexmath\src\main\java\org\scilab\forge\jlatexmath\RaiseAtom.java
C:\PROJECTS\imagingbook\jtexxchart\jlatexmath\src\main\java\org\scilab\forge\jlatexmath\CumulativeScriptsAtom.java
C:\PROJECTS\imagingbook\jtexxchart\jlatexmath\src\main\java\org\scilab\forge\jlatexmath\FcscoreBox.java
C:\PROJECTS\imagingbook\jtexxchart\jlatexmath\src\main\java\org\scilab\forge\jlatexmath\TStrokeAtom.java
C:\PROJECTS\imagingbook\jtexxchart\jlatexmath\src\main\java\org\scilab\forge\jlatexmath\SymbolAtom.java
C:\PROJECTS\imagingbook\jtexxchart\jlatexmath\src\main\java\org\scilab\forge\jlatexmath\TextStyleAtom.java
C:\PROJECTS\imagingbook\jtexxchart\jlatexmath\src\main\java\org\scilab\forge\jlatexmath\InvalidTeXFormulaException.java
C:\PROJECTS\imagingbook\jtexxchart\jlatexmath\src\main\java\org\scilab\forge\jlatexmath\DelimiterMappingNotFoundException.java
C:\PROJECTS\imagingbook\jtexxchart\jlatexmath\src\main\java\org\scilab\forge\jlatexmath\Box.java
C:\PROJECTS\imagingbook\jtexxchart\jlatexmath\src\main\java\org\scilab\forge\jlatexmath\DdotsAtom.java
C:\PROJECTS\imagingbook\jtexxchart\jlatexmath\src\main\java\org\scilab\forge\jlatexmath\StrutBox.java
C:\PROJECTS\imagingbook\jtexxchart\jlatexmath\src\main\java\org\scilab\forge\jlatexmath\DoubleFramedAtom.java
C:\PROJECTS\imagingbook\jtexxchart\jlatexmath\src\main\java\org\scilab\forge\jlatexmath\dynamic\ExternalConverter.java
C:\PROJECTS\imagingbook\jtexxchart\jlatexmath\src\main\java\org\scilab\forge\jlatexmath\MultlineAtom.java
C:\PROJECTS\imagingbook\jtexxchart\jlatexmath\src\main\java\org\scilab\forge\jlatexmath\ParseOption.java
C:\PROJECTS\imagingbook\jtexxchart\jlatexmath\src\main\java\org\scilab\forge\jlatexmath\MatrixAtom.java
C:\PROJECTS\imagingbook\jtexxchart\jlatexmath\src\main\java\org\scilab\forge\jlatexmath\IJAtom.java
C:\PROJECTS\imagingbook\jtexxchart\jlatexmath\src\main\java\org\scilab\forge\jlatexmath\FencedAtom.java
C:\PROJECTS\imagingbook\jtexxchart\jlatexmath\src\main\java\org\scilab\forge\jlatexmath\MathAtom.java
C:\PROJECTS\imagingbook\jtexxchart\jlatexmath\src\main\java\org\scilab\forge\jlatexmath\UnderscoreAtom.java
C:\PROJECTS\imagingbook\jtexxchart\jlatexmath\src\main\java\org\scilab\forge\jlatexmath\BigDelimiterAtom.java
C:\PROJECTS\imagingbook\jtexxchart\jlatexmath\src\main\java\org\scilab\forge\jlatexmath\CharSymbol.java
C:\PROJECTS\imagingbook\jtexxchart\jlatexmath\src\main\java\org\scilab\forge\jlatexmath\FractionAtom.java
C:\PROJECTS\imagingbook\jtexxchart\jlatexmath\src\main\java\org\scilab\forge\jlatexmath\Row.java
C:\PROJECTS\imagingbook\jtexxchart\jlatexmath\src\main\java\org\scilab\forge\jlatexmath\TeXIcon.java
C:\PROJECTS\imagingbook\jtexxchart\jlatexmath\src\main\java\org\scilab\forge\jlatexmath\StrikeThroughAtom.java
C:\PROJECTS\imagingbook\jtexxchart\jlatexmath\src\main\java\org\scilab\forge\jlatexmath\DelimiterFactory.java
C:\PROJECTS\imagingbook\jtexxchart\jlatexmath\src\main\java\org\scilab\forge\jlatexmath\LCaronAtom.java
C:\PROJECTS\imagingbook\jtexxchart\jlatexmath\src\main\java\org\scilab\forge\jlatexmath\HlineAtom.java
C:\PROJECTS\imagingbook\jtexxchart\jlatexmath\src\main\java\org\scilab\forge\jlatexmath\BoldAtom.java
C:\PROJECTS\imagingbook\jtexxchart\jlatexmath\src\main\java\org\scilab\forge\jlatexmath\TeXFormulaParser.java
C:\PROJECTS\imagingbook\jtexxchart\jlatexmath\src\main\java\org\scilab\forge\jlatexmath\HdotsforAtom.java
C:\PROJECTS\imagingbook\jtexxchart\jlatexmath\src\main\java\org\scilab\forge\jlatexmath\Char.java
C:\PROJECTS\imagingbook\jtexxchart\jlatexmath\src\main\java\org\scilab\forge\jlatexmath\OverlinedAtom.java
C:\PROJECTS\imagingbook\jtexxchart\jlatexmath\src\main\java\org\scilab\forge\jlatexmath\NewCommandMacro.java
C:\PROJECTS\imagingbook\jtexxchart\jlatexmath\src\main\java\org\scilab\forge\jlatexmath\OverUnderDelimiter.java
C:\PROJECTS\imagingbook\jtexxchart\jlatexmath\src\main\java\org\scilab\forge\jlatexmath\TeXSymbolParser.java
C:\PROJECTS\imagingbook\jtexxchart\jlatexmath\src\main\java\org\scilab\forge\jlatexmath\UnderOverAtom.java
C:\PROJECTS\imagingbook\jtexxchart\jlatexmath\src\main\java\org\scilab\forge\jlatexmath\BreakMarkAtom.java
C:\PROJECTS\imagingbook\jtexxchart\jlatexmath\src\main\java\org\scilab\forge\jlatexmath\SmallCapAtom.java
C:\PROJECTS\imagingbook\jtexxchart\jlatexmath\src\main\java\org\scilab\forge\jlatexmath\FcscoreAtom.java
C:\PROJECTS\imagingbook\jtexxchart\jlatexmath\src\main\java\org\scilab\forge\jlatexmath\PredefinedCommands.java
C:\PROJECTS\imagingbook\jtexxchart\jlatexmath\src\main\java\org\scilab\forge\jlatexmath\FormulaNotFoundException.java
C:\PROJECTS\imagingbook\jtexxchart\jlatexmath\src\main\java\org\scilab\forge\jlatexmath\ItAtom.java
C:\PROJECTS\imagingbook\jtexxchart\jlatexmath\src\main\java\org\scilab\forge\jlatexmath\dynamic\ExternalConverterFactory.java
C:\PROJECTS\imagingbook\jtexxchart\jlatexmath\src\main\java\org\scilab\forge\jlatexmath\PredefMacroInfo.java
C:\PROJECTS\imagingbook\jtexxchart\jlatexmath\src\main\java\org\scilab\forge\jlatexmath\Glue.java
C:\PROJECTS\imagingbook\jtexxchart\jlatexmath\src\main\java\org\scilab\forge\jlatexmath\JavaFontRenderingBox.java
C:\PROJECTS\imagingbook\jtexxchart\jlatexmath\src\main\java\org\scilab\forge\jlatexmath\SmashedAtom.java
C:\PROJECTS\imagingbook\jtexxchart\jlatexmath\src\main\java\org\scilab\forge\jlatexmath\ReflectAtom.java
C:\PROJECTS\imagingbook\jtexxchart\jlatexmath\src\main\java\org\scilab\forge\jlatexmath\VdotsAtom.java
C:\PROJECTS\imagingbook\jtexxchart\jlatexmath\src\main\java\org\scilab\forge\jlatexmath\VlineAtom.java
C:\PROJECTS\imagingbook\jtexxchart\jlatexmath\src\main\java\org\scilab\forge\jlatexmath\InvalidMatrixException.java
C:\PROJECTS\imagingbook\jtexxchart\jlatexmath\src\main\java\org\scilab\forge\jlatexmath\FontInfo.java
C:\PROJECTS\imagingbook\jtexxchart\jlatexmath\src\main\java\org\scilab\forge\jlatexmath\PhantomAtom.java
C:\PROJECTS\imagingbook\jtexxchart\jlatexmath\src\main\java\org\scilab\forge\jlatexmath\FramedBox.java
C:\PROJECTS\imagingbook\jtexxchart\jlatexmath\src\main\java\org\scilab\forge\jlatexmath\DefaultTeXFontParser.java
C:\PROJECTS\imagingbook\jtexxchart\jlatexmath\src\main\java\org\scilab\forge\jlatexmath\TtAtom.java
C:\PROJECTS\imagingbook\jtexxchart\jlatexmath\src\main\java\org\scilab\forge\jlatexmath\AlphabetRegistrationException.java
C:\PROJECTS\imagingbook\jtexxchart\jlatexmath\src\main\java\org\scilab\forge\jlatexmath\IddotsAtom.java
C:\PROJECTS\imagingbook\jtexxchart\jlatexmath\src\main\java\org\scilab\forge\jlatexmath\OvalAtom.java
C:\PROJECTS\imagingbook\jtexxchart\jlatexmath\src\main\java\org\scilab\forge\jlatexmath\ScaleBox.java
C:\PROJECTS\imagingbook\jtexxchart\jlatexmath\src\main\java\org\scilab\forge\jlatexmath\XArrowAtom.java
C:\PROJECTS\imagingbook\jtexxchart\jlatexmath\src\main\java\org\scilab\forge\jlatexmath\NthRoot.java
C:\PROJECTS\imagingbook\jtexxchart\jlatexmath\src\main\java\org\scilab\forge\jlatexmath\SpaceAtom.java
C:\PROJECTS\imagingbook\jtexxchart\jlatexmath\src\main\java\org\scilab\forge\jlatexmath\CedillaAtom.java
C:\PROJECTS\imagingbook\jtexxchart\jlatexmath\src\main\java\org\scilab\forge\jlatexmath\RotateAtom.java
C:\PROJECTS\imagingbook\jtexxchart\jlatexmath\src\main\java\org\scilab\forge\jlatexmath\RowAtom.java
C:\PROJECTS\imagingbook\jtexxchart\jlatexmath\src\main\java\org\scilab\forge\jlatexmath\SsAtom.java
C:\PROJECTS\imagingbook\jtexxchart\jlatexmath\src\main\java\org\scilab\forge\jlatexmath\EmptyFormulaException.java
C:\PROJECTS\imagingbook\jtexxchart\jlatexmath\src\main\java\org\scilab\forge\jlatexmath\UnderOverArrowAtom.java
C:\PROJECTS\imagingbook\jtexxchart\jlatexmath\src\main\java\org\scilab\forge\jlatexmath\CharBox.java
C:\PROJECTS\imagingbook\jtexxchart\jlatexmath\src\main\java\org\scilab\forge\jlatexmath\OgonekAtom.java
C:\PROJECTS\imagingbook\jtexxchart\jlatexmath\src\main\java\org\scilab\forge\jlatexmath\ext\package-info.java
C:\PROJECTS\imagingbook\jtexxchart\jlatexmath\src\main\java\org\scilab\forge\jlatexmath\TeXEnvironment.java
C:\PROJECTS\imagingbook\jtexxchart\jlatexmath\src\main\java\org\scilab\forge\jlatexmath\WebStartAlphabetRegistration.java
C:\PROJECTS\imagingbook\jtexxchart\jlatexmath\src\main\java\org\scilab\forge\jlatexmath\TextCircledAtom.java
C:\PROJECTS\imagingbook\jtexxchart\jlatexmath\src\main\java\org\scilab\forge\jlatexmath\ParseException.java
C:\PROJECTS\imagingbook\jtexxchart\jlatexmath\src\main\java\org\scilab\forge\jlatexmath\VerticalBox.java
C:\PROJECTS\imagingbook\jtexxchart\jlatexmath\src\main\java\org\scilab\forge\jlatexmath\VRowAtom.java
C:\PROJECTS\imagingbook\jtexxchart\jlatexmath\src\main\java\org\scilab\forge\jlatexmath\PredefinedTeXFormulaParser.java
C:\PROJECTS\imagingbook\jtexxchart\jlatexmath\src\main\java\org\scilab\forge\jlatexmath\BigOperatorAtom.java
C:\PROJECTS\imagingbook\jtexxchart\jlatexmath\src\main\java\org\scilab\forge\jlatexmath\MulticolumnAtom.java
C:\PROJECTS\imagingbook\jtexxchart\jlatexmath\src\main\java\org\scilab\forge\jlatexmath\package-info.java
C:\PROJECTS\imagingbook\jtexxchart\jlatexmath\src\main\java\org\scilab\forge\jlatexmath\InvalidDelimiterException.java
C:\PROJECTS\imagingbook\jtexxchart\jlatexmath\src\main\java\org\scilab\forge\jlatexmath\OverBar.java
C:\PROJECTS\imagingbook\jtexxchart\jlatexmath\src\main\java\org\scilab\forge\jlatexmath\TextStyleMappingNotFoundException.java
C:\PROJECTS\imagingbook\jtexxchart\jlatexmath\src\main\java\org\scilab\forge\jlatexmath\ReflectBox.java
C:\PROJECTS\imagingbook\jtexxchart\jlatexmath\src\main\java\org\scilab\forge\jlatexmath\AccentedAtom.java
C:\PROJECTS\imagingbook\jtexxchart\jlatexmath\src\main\java\org\scilab\forge\jlatexmath\NewEnvironmentMacro.java
C:\PROJECTS\imagingbook\jtexxchart\jlatexmath\src\main\java\org\scilab\forge\jlatexmath\CharFont.java
C:\PROJECTS\imagingbook\jtexxchart\jlatexmath\src\main\java\org\scilab\forge\jlatexmath\AlphabetRegistration.java
C:\PROJECTS\imagingbook\jtexxchart\jlatexmath\src\main\java\org\scilab\forge\jlatexmath\RomanAtom.java
C:\PROJECTS\imagingbook\jtexxchart\jlatexmath\src\main\java\org\scilab\forge\jlatexmath\ext\FontUtil.java
C:\PROJECTS\imagingbook\jtexxchart\jlatexmath\src\main\java\org\scilab\forge\jlatexmath\LapedAtom.java
C:\PROJECTS\imagingbook\jtexxchart\jlatexmath\src\main\java\org\scilab\forge\jlatexmath\XLeftRightArrowFactory.java
C:\PROJECTS\imagingbook\jtexxchart\jlatexmath\src\main\java\org\scilab\forge\jlatexmath\cyrillic\CyrillicRegistration.java
C:\PROJECTS\imagingbook\jtexxchart\jlatexmath\src\main\java\org\scilab\forge\jlatexmath\TeXFont.java
C:\PROJECTS\imagingbook\jtexxchart\jlatexmath\src\main\java\org\scilab\forge\jlatexmath\TeXFormulaSettingsParser.java
C:\PROJECTS\imagingbook\jtexxchart\jlatexmath\src\main\java\org\scilab\forge\jlatexmath\URLAlphabetRegistration.java
C:\PROJECTS\imagingbook\jtexxchart\jlatexmath\src\main\java\org\scilab\forge\jlatexmath\ArrayOfAtoms.java
C:\PROJECTS\imagingbook\jtexxchart\jlatexmath\src\main\java\org\scilab\forge\jlatexmath\greek\GreekRegistration.java
C:\PROJECTS\imagingbook\jtexxchart\jlatexmath\src\main\java\org\scilab\forge\jlatexmath\MiddleAtom.java
C:\PROJECTS\imagingbook\jtexxchart\jlatexmath\src\main\java\org\scilab\forge\jlatexmath\RotateBox.java
C:\PROJECTS\imagingbook\jtexxchart\jlatexmath\src\main\java\org\scilab\forge\jlatexmath\MonoScaleAtom.java
C:\PROJECTS\imagingbook\jtexxchart\jlatexmath\src\main\java\org\scilab\forge\jlatexmath\GeoGebraLogoAtom.java
C:\PROJECTS\imagingbook\jtexxchart\jlatexmath\src\main\java\org\scilab\forge\jlatexmath\XMLResourceParseException.java
C:\PROJECTS\imagingbook\jtexxchart\jlatexmath\src\main\java\org\scilab\forge\jlatexmath\EmptyAtom.java
C:\PROJECTS\imagingbook\jtexxchart\jlatexmath\src\main\java\org\scilab\forge\jlatexmath\dynamic\DynamicAtom.java
C:\PROJECTS\imagingbook\jtexxchart\jlatexmath\src\main\java\org\scilab\forge\jlatexmath\GlueBox.java
C:\PROJECTS\imagingbook\jtexxchart\jlatexmath\src\main\java\org\scilab\forge\jlatexmath\JavaFontRenderingAtom.java
C:\PROJECTS\imagingbook\jtexxchart\jlatexmath\src\main\java\org\scilab\forge\jlatexmath\DefaultTeXFont.java
C:\PROJECTS\imagingbook\jtexxchart\jlatexmath\src\main\java\org\scilab\forge\jlatexmath\JMathTeXException.java
C:\PROJECTS\imagingbook\jtexxchart\jlatexmath\src\main\java\org\scilab\forge\jlatexmath\HorizontalRule.java
C:\PROJECTS\imagingbook\jtexxchart\jlatexmath\src\main\java\org\scilab\forge\jlatexmath\ShadowAtom.java
C:\PROJECTS\imagingbook\jtexxchart\jlatexmath\src\main\java\org\scilab\forge\jlatexmath\TeXParser.java
C:\PROJECTS\imagingbook\jtexxchart\jlatexmath\src\main\java\org\scilab\forge\jlatexmath\TeXFormula.java
C:\PROJECTS\imagingbook\jtexxchart\jlatexmath\src\main\java\org\scilab\forge\jlatexmath\BreakFormula.java
C:\PROJECTS\imagingbook\jtexxchart\jlatexmath\src\main\java\org\scilab\forge\jlatexmath\MacroInfo.java
C:\PROJECTS\imagingbook\jtexxchart\jlatexmath\src\main\java\org\scilab\forge\jlatexmath\OvalBox.java
C:\PROJECTS\imagingbook\jtexxchart\jlatexmath\src\main\java\org\scilab\forge\jlatexmath\cache\JLaTeXMathCache.java
C:\PROJECTS\imagingbook\jtexxchart\jlatexmath\src\main\java\org\scilab\forge\jlatexmath\Extension.java
C:\PROJECTS\imagingbook\jtexxchart\jlatexmath\src\main\java\org\scilab\forge\jlatexmath\ext\MathRendering.java
C:\PROJECTS\imagingbook\jtexxchart\jlatexmath\src\main\java\org\scilab\forge\jlatexmath\PredefinedTeXFormulas.java
C:\PROJECTS\imagingbook\jtexxchart\jlatexmath\src\main\java\org\scilab\forge\jlatexmath\ScaleAtom.java
C:\PROJECTS\imagingbook\jtexxchart\jlatexmath\src\main\java\org\scilab\forge\jlatexmath\SymbolMappingNotFoundException.java
C:\PROJECTS\imagingbook\jtexxchart\jlatexmath\src\main\java\org\scilab\forge\jlatexmath\CharAtom.java
C:\PROJECTS\imagingbook\jtexxchart\jlatexmath\src\main\java\org\scilab\forge\jlatexmath\ResourceParseException.java
C:\PROJECTS\imagingbook\jtexxchart\jlatexmath\src\main\java\org\scilab\forge\jlatexmath\InvalidSymbolTypeException.java
C:\PROJECTS\imagingbook\jtexxchart\jlatexmath\src\main\java\org\scilab\forge\jlatexmath\SymbolNotFoundException.java
C:\PROJECTS\imagingbook\jtexxchart\jlatexmath\src\main\java\org\scilab\forge\jlatexmath\OverUnderBox.java
C:\PROJECTS\imagingbook\jtexxchart\jlatexmath\src\main\java\org\scilab\forge\jlatexmath\ShadowBox.java
C:\PROJECTS\imagingbook\jtexxchart\jlatexmath\src\main\java\org\scilab\forge\jlatexmath\InvalidDelimiterTypeException.java
C:\PROJECTS\imagingbook\jtexxchart\jlatexmath\src\main\java\org\scilab\forge\jlatexmath\LaTeXAtom.java
C:\PROJECTS\imagingbook\jtexxchart\jlatexmath\src\main\java\org\scilab\forge\jlatexmath\FontAlreadyLoadedException.java
C:\PROJECTS\imagingbook\jtexxchart\jlatexmath\src\main\java\org\scilab\forge\jlatexmath\Dummy.java
C:\PROJECTS\imagingbook\jtexxchart\jlatexmath\src\main\java\org\scilab\forge\jlatexmath\tcaronAtom.java
C:\PROJECTS\imagingbook\jtexxchart\jlatexmath\src\main\java\org\scilab\forge\jlatexmath\VCenteredAtom.java
C:\PROJECTS\imagingbook\jtexxchart\jlatexmath\src\main\java\org\scilab\forge\jlatexmath\GlueSettingsParser.java
C:\PROJECTS\imagingbook\jtexxchart\jlatexmath\src\main\java\org\scilab\forge\jlatexmath\PredefMacros.java
C:\PROJECTS\imagingbook\jtexxchart\jlatexmath\src\main\java\org\scilab\forge\jlatexmath\FBoxAtom.java
C:\PROJECTS\imagingbook\jtexxchart\jlatexmath\src\main\java\org\scilab\forge\jlatexmath\Metrics.java
C:\PROJECTS\imagingbook\jtexxchart\jlatexmath\src\main\java\org\scilab\forge\jlatexmath\UnderlinedAtom.java
C:\PROJECTS\imagingbook\jtexxchart\jlatexmath\src\main\java\org\scilab\forge\jlatexmath\StyleAtom.java
C:\PROJECTS\imagingbook\jtexxchart\jlatexmath\src\main\java\org\scilab\forge\jlatexmath\HorizontalBox.java
C:\PROJECTS\imagingbook\jtexxchart\jlatexmath\src\main\java\org\scilab\forge\jlatexmath\ResizeAtom.java
C:\PROJECTS\imagingbook\jtexxchart\jlatexmath\src\main\java\org\scilab\forge\jlatexmath\TypedAtom.java
C:\PROJECTS\imagingbook\jtexxchart\jlatexmath\src\main\java\org\scilab\forge\jlatexmath\InvalidUnitException.java
C:\PROJECTS\imagingbook\jtexxchart\jlatexmath\src\main\java\org\scilab\forge\jlatexmath\GraphicsBox.java
C:\PROJECTS\imagingbook\jtexxchart\jlatexmath\src\main\java\org\scilab\forge\jlatexmath\InvalidAtomTypeException.java
C:\PROJECTS\imagingbook\jtexxchart\jlatexmath\src\main\java\org\scilab\forge\jlatexmath\FixedCharAtom.java
C:\PROJECTS\imagingbook\jtexxchart\jlatexmath\src\main\java\org\scilab\forge\jlatexmath\TeXConstants.java
